%YAML 1.1
%TAG !u! tag:unity3d.com,2011:
--- !u!114 &11400000
MonoBehaviour:
  m_ObjectHideFlags: 0
  m_CorrespondingSourceObject: {fileID: 0}
  m_PrefabInstance: {fileID: 0}
  m_PrefabAsset: {fileID: 0}
  m_GameObject: {fileID: 0}
  m_Enabled: 1
  m_EditorHideFlags: 0
  m_Script: {fileID: 11500000, guid: 9d8e862de13e9fd42b7db202dce1848e, type: 3}
  m_Name: Wave 1
  m_EditorClassIdentifier: 
  enemyPrefab: {fileID: 3912308486405191026, guid: f0851504ffc02ed459540135d63ef982,
    type: 3}
  pathPrefab: {fileID: 3141731656975285679, guid: f47d6b73738e7ee469949d5d03b93cad,
    type: 3}
  spanTime: 0.5
  spanRandomFactor: 0.3
  numberOfEnemies: 5
  speed: 2
